
From Giuseppe Morrello script, script_persistance_trois.py

Input Data : 
from commissioning pid1033, the rateints of the pipeline
pattern='jw01033005001_04103_00001-seg00?_mirimage_rateints.*'
L168-9

Processing Parameters
# Window size
x1= 11 
x2= 72
y1= 0 
y2= 403
# Window size
x1= 27  #  11
x2= 38  #  72
y1= 375 #   0
y2= 395 # 403

### bin size
bin_size = 30
## window for the filtering 5
transit_start = 4800 #integration number
transit_stop = 7800 #integration_number
