5.845811842207474911e+03
5.836013869129527848e+03
5.832771153675425921e+03
5.829767622930353355e+03
5.826444267272949219e+03
5.823271316250888049e+03
5.822642210110750966e+03
5.821451854359020217e+03
5.821282196322354139e+03
5.820573436528986349e+03
5.819575771678577439e+03
5.818805742575905242e+03
5.815689919627796371e+03
5.814969340515136537e+03
5.816282786282626148e+03
5.819648055336691868e+03
5.815856138472123348e+03
5.814985652021928217e+03
5.812721223588423527e+03
5.817253850624778352e+03
5.814136172624067513e+03
5.813262032110041218e+03
5.811059123507412551e+03
5.815185092440518019e+03
5.812464380576393523e+03
5.814275546680797561e+03
5.814066301519220360e+03
5.816175320434570494e+03
5.815324334439364065e+03
5.812709141679243658e+03
5.811900031627308636e+03
5.811420988464355105e+03
5.812329148448597152e+03
5.813619984297319206e+03
5.813615580055929968e+03
5.814289741932261677e+03
5.813010589044743938e+03
5.812938022821599588e+03
5.808689193448153674e+03
5.811593257279829231e+03
5.813459627186168291e+03
5.812006609413840124e+03
5.811804972423206891e+03
5.812300678461248026e+03
5.814774758633700003e+03
5.812243169333718470e+03
5.809659724426269349e+03
5.812851051607998670e+03
5.813034401078657538e+03
5.812978040244363001e+03
5.810285723183371374e+03
5.809724642666903492e+03
5.809404281338778674e+03
5.812176108481667143e+03
5.811376385359330925e+03
5.811654667386142137e+03
5.810068855563076795e+03
5.813811234075373250e+03
5.813993402377042003e+03
5.810767351740057165e+03
5.811074704811790070e+03
5.811783108520507994e+03
5.807306452387029822e+03
5.807990153364701655e+03
5.810358355019308874e+03
5.811546927850896282e+03
5.812983154990456569e+03
5.811125057289817050e+03
5.813380483453924171e+03
5.813041377674449905e+03
5.811700026910954875e+03
5.810763089960271827e+03
5.810232619545676243e+03
5.811054655179110341e+03
5.808456755898215306e+03
5.808511591824618336e+03
5.810394586736505516e+03
5.810639154330167003e+03
5.808748762928355973e+03
5.809942872342196097e+03
5.812645930897106155e+03
5.811023943259498992e+03
5.812139299149946964e+03
5.811542685630104643e+03
5.810381290921298387e+03
5.811488266268643201e+03
5.809539728754217322e+03
5.809780810963024123e+03
5.808063637889515121e+03
5.811782892123135753e+03
5.811607141251997746e+03
5.813149088356711218e+03
5.811828915682705883e+03
5.811772110678933132e+03
5.810573953108353635e+03
5.815119232871315944e+03
5.813142569247159372e+03
5.810726595237038055e+03
5.810721126070889113e+03
5.808702769886363967e+03
5.809376584555886438e+03
5.809696290033513833e+03
5.809871710066361629e+03
5.810855270801890583e+03
5.812185260425914748e+03
5.811736945273659330e+03
5.812226499384099952e+03
5.812234324645995912e+03
5.812586861072886677e+03
5.811461562971635431e+03
5.809720831160111629e+03
5.811875317244096550e+03
5.806814188870516773e+03
5.810493206093527988e+03
5.812993059331720360e+03
5.809201214599609557e+03
5.808937982039017697e+03
5.808340593095259464e+03
5.809914709056507490e+03
5.805188531355423947e+03
5.808076739779385207e+03
5.811806127513538740e+03
5.808414014781605147e+03
5.812272530156916218e+03
5.810228884610262867e+03
5.807308990894664021e+03
5.808572553599964522e+03
5.809035517051002898e+03
5.807181744800914203e+03
5.811421633494984235e+03
5.809898570112748530e+03
5.813926404224742328e+03
5.811364266967773801e+03
5.811604298123446824e+03
5.810505955366655144e+03
5.806236177062988645e+03
5.808582039572976100e+03
5.808572349548339844e+03
5.810913050009987273e+03
5.808153985734419621e+03
5.809452995161576837e+03
5.809030093661221144e+03
5.809520343433727248e+03
5.809263324252041457e+03
5.806326701493696419e+03
5.809963733603737637e+03
5.810828580821644209e+03
5.806611649946732541e+03
5.807098831731623250e+03
5.807542257274280928e+03
5.810390730979225737e+03
5.808416858048872200e+03
5.808921368824351703e+03
5.808681436018509885e+03
5.808004469160599911e+03
5.806869556496360019e+03
5.807171315696023157e+03
5.808949255787242691e+03
5.810045924516157356e+03
5.810825281732732947e+03
5.810715401528098482e+03
5.809034015586159512e+03
5.810130952731045909e+03
5.809733622464266773e+03
5.810501212380148900e+03
5.809046511702103999e+03
5.805277740201083361e+03
5.809818672873757350e+03
5.807677962563254368e+03
5.804045939497514155e+03
5.805861370572177293e+03
5.807178977827592462e+03
5.808052559176358045e+03
5.804520029380104461e+03
5.806796117470481477e+03
5.808015772732821461e+03
5.804132189386541540e+03
5.804605530478737819e+03
5.808160332142222614e+03
5.805141273637251288e+03
5.807192207058993517e+03
5.807118135486949541e+03
5.806122948247736531e+03
5.805012876753373348e+03
5.803945437622070131e+03
5.806470361882989891e+03
5.803748559431595822e+03
5.804635376253994764e+03
5.806217958207564152e+03
5.806800341658158686e+03
5.807171485623446642e+03
5.807950474548340026e+03
5.805776483293013371e+03
5.803002278830788782e+03
5.805045602000843246e+03
5.804140666337446419e+03
5.807334162764115717e+03
5.807561112282493013e+03
5.806060047773881706e+03
5.803316564663973622e+03
5.807801185746626288e+03
5.806200300736861209e+03
5.804676518526944164e+03
5.805725022472034652e+03
5.805466355202414888e+03
5.804914648437499636e+03
5.805077677501331891e+03
5.806959550892222978e+03
5.804828147194602025e+03
5.804709403991699219e+03
5.804890080538662914e+03
5.804537459356134605e+03
5.804724648909134885e+03
5.806113256281072609e+03
5.807664321621981799e+03
5.807086435352672197e+03
5.806074337491122606e+03
5.802580846196954553e+03
5.806932552268288418e+03
5.807197197237881483e+03
5.806978329606489751e+03
5.808911284013228396e+03
5.807575143571333683e+03
5.805806168434836763e+03
5.807420789683948897e+03
5.806058554909445775e+03
5.804827491066672337e+03
5.806814704062721830e+03
5.806147656250000182e+03
5.805564617503772752e+03
5.806253961320357121e+03
5.806083887134898760e+03
5.808575548761541540e+03
5.805299094182794761e+03
5.805939622081409652e+03
5.800918665799227711e+03
5.806081942194158728e+03
5.806875380637428862e+03
5.807134082169965950e+03
5.805103563482110985e+03
5.805501457907937038e+03
5.804520927290483087e+03
5.802625548206676285e+03
5.799312335205077943e+03
5.804483076060902022e+03
5.805331798206676467e+03
5.804398272566361811e+03
5.804951410466974266e+03
5.803596904962712870e+03
5.805526406166770357e+03
5.806527029418944949e+03
5.808632417574795909e+03
5.804722236355868517e+03
5.807381745494495590e+03
5.805684279008345584e+03
5.804544091380726059e+03
5.806556986167213836e+03
5.803515115217728635e+03
5.804741722939231295e+03
5.805151075744628542e+03
5.807518696732954595e+03
5.808694993730025089e+03
5.810059831792657860e+03
5.810237019209428581e+03
5.812014887723055836e+03
5.807023008173162452e+03
5.806477062294699863e+03
5.806444314713911808e+03
5.807594708806817835e+03
5.809616307622735803e+03
5.809292781344326613e+03
5.807660035566849729e+03
5.809595551508123208e+03
5.808968143809925095e+03
5.808558171497691546e+03
5.805775085033070354e+03
5.806152837718616865e+03
5.807188114513050095e+03
5.808540207186611951e+03
5.808694795504483409e+03
5.810451674582741362e+03
5.809440364907004550e+03
5.809041091780229181e+03
5.811541148376464662e+03
5.808438716957785800e+03
5.806347936873002254e+03
5.805117069313742832e+03
5.807805895025079735e+03
5.811218788008256524e+03
5.811237602372602851e+03
5.807250435846502114e+03
5.807814777859774949e+03
5.807458655201305191e+03
5.810288454229181298e+03
5.806890965132280144e+03
5.809244903287020861e+03
5.810822842129794481e+03
5.810761569213867006e+03
5.809255053572221186e+03
5.807084570451216678e+03
5.808498816195401560e+03
5.808717324690384885e+03
5.810305111278186814e+03
5.807218993585759563e+03
5.807235626359419257e+03
5.806973270069469436e+03
5.804786493336070635e+03
5.807390323846990213e+03
5.809086222561923023e+03
5.810556911676580057e+03
5.807351391185413377e+03
5.805858428261496556e+03
